10                             # NTYPES (number of particle types listed below)
3.900e-6  1400  1.0   6.17     # Diameter(m), density, shape, wt%
7.800e-6  1400  1.0   9.26     # Diameter(m), density, shape, wt%
15.62e-6  1400  1.0  10.49     # Diameter(m), density, shape, wt%
31.25e-6  1400  1.0  12.35     # Diameter(m), density, shape, wt%
62.50e-6  1400  1.0  16.67     # Diameter(m), density, shape, wt%
125.0e-6  1700  1.0  12.35     # Diameter(m), density, shape, wt%
250.0e-6  1700  1.0  11.11     # Diameter(m), density, shape, wt%
500.0e-6  2500  1.0   6.17     # Diameter(m), density, shape, wt%
1.000e-3  2500  1.0   6.79     # Diameter(m), density, shape, wt%
2.000e-3  2500  1.0   8.64     # Diameter(m), density, shape, wt%
